{
  "page": 1,
  "total_results": 157,
  "total_pages": 942,
  "results": [
    {
      "id": 420,
      "title": "coliving 1",
      "description": "apartamento equipado, cuenta con 3 habitaciones, cocina integral",
      "release_date": "2019-07-19",
      "image": "--",
      "location": "Bogotá",
      "latitude": "4.687652",
      "longitude": "-74.042464",
      "type_living_place": "Apartamento",
      "roomsNumber": 3,
      "amount": 1000000,
      "amountCurrency": "COP",
      "favorite": false
    },
    {
      "id": 421,
      "title": "coliving 2",
      "description": "apartamento equipado, cuenta con 3 habitaciones, cocina integral",
      "release_date": "2019-08-09",
      "image": "--",
      "location": "Bogotá",
      "latitude": "4.611673 ",
      "longitude": "-74.161250",
      "type_living_place": "Apartamento",
      "roomsNumber": 3,
      "amount": 1000000,
      "amountCurrency": "COP",
      "favorite": false
    },
    {
      "id": 422,
      "title": "coliving 3",
      "description": "apartamento equipado, cuenta con 3 habitaciones, cocina integral",
      "release_date": "2019-03-10",
      "image": "--",
      "location": "Bogotá",
      "latitude": "4.640794",
      "longitude": "-74.195380",
      "type_living_place": "Apartamento",
      "roomsNumber": 3,
      "amount": 1000000,
      "amountCurrency": "COP",
      "favorite": false
    },
    {
      "id": 423,
      "title": "coliving 4",
      "description": "apartamento equipado, cuenta con 3 habitaciones, cocina integral",
      "release_date": "2020-02-15",
      "image": "--",
      "location": "Bogotá",
      "latitude": "4.687652",
      "longitude": "-74.134514",
      "type_living_place": "Apartamento",
      "roomsNumber": 3,
      "amount": 1000000,
      "amountCurrency": "COP",
      "favorite": false
    },
    {
      "id": 424,
      "title": "coliving 5",
      "description": "apartamento equipado, cuenta con 3 habitaciones, cocina integral",
      "release_date": "2020-01-19",
      "image": "--",
      "location": "Bogotá",
      "latitude": "4.609900",
      "longitude": "-74.042464",
      "type_living_place": "Apartamento",
      "roomsNumber": 3,
      "amount": 1000000,
      "amountCurrency": "COP",
      "favorite": false
    },
    {
      "id": 425,
      "title": "coliving 6",
      "description": "apartamento equipado, cuenta con 3 habitaciones, cocina integral",
      "release_date": "2019-09-25",
      "image": "--",
      "location": "Bogotá",
      "latitude": "4.615277",
      "longitude": "-74.141639",
      "type_living_place": "Apartamento",
      "roomsNumber": 3,
      "amount": 1000000,
      "amountCurrency": "COP",
      "favorite": false
    }
  ]
}